{
  "lang":"en",
  "name":"model",
  "version":"0.0.0",
  "spacy_version":">=2.0.12",
  "description":"",
  "author":"",
  "email":"",
  "url":"",
  "license":"",
  "vectors":{
    "width":300,
    "vectors":41670,
    "keys":41670,
    "name":null
  },
  "pipeline":[

  ]
}